Lab2/codes/CPU.vcd
$date
	Tue Jan  3 05:18:29 2023
$end
$version
	Icarus Verilog
$end
$timescale
	1s
$end
$scope module TestBench $end
$var reg 1 ! Clk $end
$var reg 1 " Reset $end
$var reg 1 # Start $end
$var integer 32 $ counter [31:0] $end
$var integer 32 % i [31:0] $end
$var integer 32 & outfile [31:0] $end
$scope module CPU $end
$var wire 1 ' IF_ID_EX_Flush $end
$var wire 1 ! clk_i $end
$var wire 1 " rst_i $end
$var wire 1 # start_i $end
$var wire 1 ( zero $end
$var wire 1 ) stall $end
$var wire 32 * rs2_data [31:0] $end
$var wire 5 + rs2 [4:0] $end
$var wire 32 , rs1_data [31:0] $end
$var wire 5 - rs1 [4:0] $end
$var wire 32 . read_data [31:0] $end
$var wire 32 / rd_data [31:0] $end
$var wire 5 0 rd [4:0] $end
$var wire 1 1 predict $end
$var wire 32 2 pc_w [31:0] $end
$var wire 32 3 pc_res [31:0] $end
$var wire 32 4 pc_r [31:0] $end
$var wire 7 5 op [6:0] $end
$var wire 32 6 instruction [31:0] $end
$var wire 32 7 immediate_32 [31:0] $end
$var wire 12 8 immediate [11:0] $end
$var wire 7 9 funct7 [6:0] $end
$var wire 3 : funct3 [2:0] $end
$var wire 1 ; RegWrite $end
$var wire 1 < PCWrite $end
$var wire 1 = NoOp $end
$var wire 1 > MemtoReg $end
$var wire 1 ? MemWrite $end
$var wire 1 @ MemRead $end
$var wire 32 A MUX_out [31:0] $end
$var wire 32 B MUX_PC_out2 [31:0] $end
$var wire 32 C MUX_PC_out [31:0] $end
$var wire 32 D MUX_B_out [31:0] $end
$var wire 32 E MUX_A_out [31:0] $end
$var wire 32 F MEM_WB_read_data [31:0] $end
$var wire 5 G MEM_WB_rd [4:0] $end
$var wire 1 H MEM_WB_RegWrite $end
$var wire 1 I MEM_WB_MemtoReg $end
$var wire 32 J MEM_WB_ALU_result [31:0] $end
$var wire 32 K IF_ID_inst [31:0] $end
$var wire 32 L IF_ID_PC [31:0] $end
$var wire 1 M ID_EX_update $end
$var wire 32 N ID_EX_rs2_data [31:0] $end
$var wire 5 O ID_EX_rs2 [4:0] $end
$var wire 32 P ID_EX_rs1_data [31:0] $end
$var wire 5 Q ID_EX_rs1 [4:0] $end
$var wire 5 R ID_EX_rd [4:0] $end
$var wire 1 S ID_EX_prev_predict $end
$var wire 32 T ID_EX_pc_next [31:0] $end
$var wire 32 U ID_EX_immediate_32 [31:0] $end
$var wire 10 V ID_EX_funct [9:0] $end
$var wire 1 W ID_EX_RegWrite $end
$var wire 1 X ID_EX_MemtoReg $end
$var wire 1 Y ID_EX_MemWrite $end
$var wire 1 Z ID_EX_MemRead $end
$var wire 32 [ ID_EX_Branch_address [31:0] $end
$var wire 1 \ ID_EX_ALUSrc $end
$var wire 2 ] ID_EX_ALUOp [1:0] $end
$var wire 2 ^ Forward_B [1:0] $end
$var wire 2 _ Forward_A [1:0] $end
$var wire 5 ` EX_MEM_rd [4:0] $end
$var wire 1 a EX_MEM_RegWrite $end
$var wire 1 b EX_MEM_MemtoReg $end
$var wire 1 c EX_MEM_MemWrite $end
$var wire 1 d EX_MEM_MemRead $end
$var wire 32 e EX_MEM_MUX_B_out [31:0] $end
$var wire 32 f EX_MEM_ALU_result [31:0] $end
$var wire 32 g Branch_address [31:0] $end
$var wire 1 h Branch $end
$var wire 32 i ALU_result [31:0] $end
$var wire 3 j ALU_Ctrl [2:0] $end
$var wire 1 k ALUSrc $end
$var wire 2 l ALUOp [1:0] $end
$scope module ALU $end
$var wire 32 m data_o [31:0] $end
$var wire 32 n data2_i [31:0] $end
$var wire 32 o data1_i [31:0] $end
$var wire 3 p ALUCtrl_i [2:0] $end
$var reg 32 q data [31:0] $end
$var reg 1 ( zero_o $end
$upscope $end
$scope module ALU_Control $end
$var wire 3 r ALUCtrl_o [2:0] $end
$var wire 10 s funct_i [9:0] $end
$var wire 2 t ALUOp_i [1:0] $end
$var reg 3 u ALUCtrl [2:0] $end
$upscope $end
$scope module Add_Branch $end
$var wire 32 v data2_in [31:0] $end
$var wire 32 w data_o [31:0] $end
$var wire 32 x data1_in [31:0] $end
$upscope $end
$scope module Add_PC $end
$var wire 32 y data2_in [31:0] $end
$var wire 32 z data_o [31:0] $end
$var wire 32 { data1_in [31:0] $end
$upscope $end
$scope module Control $end
$var wire 7 | Op_i [6:0] $end
$var wire 1 = NoOp_i $end
$var reg 2 } ALUOp_o [1:0] $end
$var reg 1 k ALUSrc_o $end
$var reg 1 h Branch_o $end
$var reg 1 @ MemRead_o $end
$var reg 1 ? MemWrite_o $end
$var reg 1 > MemtoReg_o $end
$var reg 1 ; RegWrite_o $end
$upscope $end
$scope module Data_Memory $end
$var wire 1 ! clk_i $end
$var wire 32 ~ data_o [31:0] $end
$var wire 32 !" data_i [31:0] $end
$var wire 32 "" addr_i [31:0] $end
$var wire 1 c MemWrite_i $end
$var wire 1 d MemRead_i $end
$upscope $end
$scope module EX_MEM $end
$var wire 32 #" ALU_result_i [31:0] $end
$var wire 1 ! clk_i $end
$var wire 1 " rst_i $end
$var wire 1 # start_i $end
$var wire 5 $" rd_i [4:0] $end
$var wire 1 W RegWrite_i $end
$var wire 1 X MemtoReg_i $end
$var wire 1 Y MemWrite_i $end
$var wire 1 Z MemRead_i $end
$var wire 32 %" MUX_B_out_i [31:0] $end
$var reg 32 &" ALU_result_o [31:0] $end
$var reg 32 '" MUX_B_out_o [31:0] $end
$var reg 1 d MemRead_o $end
$var reg 1 c MemWrite_o $end
$var reg 1 b MemtoReg_o $end
$var reg 1 a RegWrite_o $end
$var reg 5 (" rd_o [4:0] $end
$upscope $end
$scope module Forwarding_Unit $end
$var wire 1 a EX_MEM_RegWrite_i $end
$var wire 5 )" EX_MEM_rd_i [4:0] $end
$var wire 5 *" MEM_WB_rd_i [4:0] $end
$var wire 1 H MEM_WB_RegWrite_i $end
$var wire 5 +" ID_EX_rs2_i [4:0] $end
$var wire 5 ," ID_EX_rs1_i [4:0] $end
$var reg 2 -" Forward_A [1:0] $end
$var reg 2 ." Forward_B [1:0] $end
$upscope $end
$scope module Hazard_Detection $end
$var wire 1 = NoOp_o $end
$var wire 1 ) Stall_o $end
$var wire 5 /" rs1_i [4:0] $end
$var wire 5 0" rs2_i [4:0] $end
$var wire 1 < PCWrite_o $end
$var wire 5 1" ID_EX_rd_i [4:0] $end
$var wire 1 Z ID_EX_MemRead_i $end
$upscope $end
$scope module ID_EX $end
$var wire 2 2" ALUOp_i [1:0] $end
$var wire 1 k ALUSrc_i $end
$var wire 32 3" Branch_address_i [31:0] $end
$var wire 1 h Branch_i $end
$var wire 1 @ MemRead_i $end
$var wire 1 ? MemWrite_i $end
$var wire 1 > MemtoReg_i $end
$var wire 1 ; RegWrite_i $end
$var wire 1 ! clk_i $end
$var wire 1 ' flush_i $end
$var wire 10 4" funct_i [9:0] $end
$var wire 32 5" pc_next_i [31:0] $end
$var wire 5 6" rd_i [4:0] $end
$var wire 5 7" rs1_i [4:0] $end
$var wire 5 8" rs2_i [4:0] $end
$var wire 1 " rst_i $end
$var wire 1 # start_i $end
$var wire 32 9" rs2_data_i [31:0] $end
$var wire 32 :" rs1_data_i [31:0] $end
$var wire 1 1 prev_predict_i $end
$var wire 32 ;" immediate_32_i [31:0] $end
$var reg 2 <" ALUOp_o [1:0] $end
$var reg 1 \ ALUSrc_o $end
$var reg 32 =" Branch_address_o [31:0] $end
$var reg 1 M Branch_o $end
$var reg 1 Z MemRead_o $end
$var reg 1 Y MemWrite_o $end
$var reg 1 X MemtoReg_o $end
$var reg 1 W RegWrite_o $end
$var reg 10 >" funct_o [9:0] $end
$var reg 32 ?" immediate_32_o [31:0] $end
$var reg 32 @" pc_next_o [31:0] $end
$var reg 1 S prev_predict_o $end
$var reg 5 A" rd_o [4:0] $end
$var reg 32 B" rs1_data_o [31:0] $end
$var reg 5 C" rs1_o [4:0] $end
$var reg 32 D" rs2_data_o [31:0] $end
$var reg 5 E" rs2_o [4:0] $end
$upscope $end
$scope module IF_ID $end
$var wire 1 ! clk_i $end
$var wire 1 F" flush_i $end
$var wire 1 " rst_i $end
$var wire 1 ) stall_i $end
$var wire 1 # start_i $end
$var wire 32 G" instruction_i [31:0] $end
$var wire 32 H" PC_i [31:0] $end
$var reg 32 I" IF_ID_PC_o [31:0] $end
$var reg 32 J" IF_ID_inst_o [31:0] $end
$upscope $end
$scope module Instruction_Memory $end
$var wire 32 K" instr_o [31:0] $end
$var wire 32 L" addr_i [31:0] $end
$upscope $end
$scope module MEM_WB $end
$var wire 32 M" ALU_result_i [31:0] $end
$var wire 1 b MemtoReg_i $end
$var wire 1 a RegWrite_i $end
$var wire 1 ! clk_i $end
$var wire 5 N" rd_i [4:0] $end
$var wire 32 O" read_data_i [31:0] $end
$var wire 1 " rst_i $end
$var wire 1 # start_i $end
$var reg 32 P" ALU_result_o [31:0] $end
$var reg 1 I MemtoReg_o $end
$var reg 1 H RegWrite_o $end
$var reg 5 Q" rd_o [4:0] $end
$var reg 32 R" read_data_o [31:0] $end
$upscope $end
$scope module MUX32A $end
$var wire 32 S" data1_i [31:0] $end
$var wire 32 T" data2_i [31:0] $end
$var wire 1 U" select_i $end
$var wire 32 V" data_o [31:0] $end
$upscope $end
$scope module MUX32B $end
$var wire 32 W" data1_i [31:0] $end
$var wire 32 X" data2_i [31:0] $end
$var wire 1 ' select_i $end
$var wire 32 Y" data_o [31:0] $end
$upscope $end
$scope module MUX32W $end
$var wire 32 Z" ALU_result [31:0] $end
$var wire 1 I MemtoReg $end
$var wire 32 [" read_data [31:0] $end
$var wire 32 \" data_o [31:0] $end
$upscope $end
$scope module MUX32_A $end
$var wire 32 ]" EX_MEM_ALU_result_i [31:0] $end
$var wire 2 ^" Forward_i [1:0] $end
$var wire 32 _" ID_EX_rs_data_i [31:0] $end
$var wire 32 `" write_data_i [31:0] $end
$var wire 32 a" data_o [31:0] $end
$upscope $end
$scope module MUX32_B $end
$var wire 32 b" EX_MEM_ALU_result_i [31:0] $end
$var wire 2 c" Forward_i [1:0] $end
$var wire 32 d" ID_EX_rs_data_i [31:0] $end
$var wire 32 e" write_data_i [31:0] $end
$var wire 32 f" data_o [31:0] $end
$upscope $end
$scope module MUX_ALUSrc $end
$var wire 32 g" data1_i [31:0] $end
$var wire 32 h" data2_i [31:0] $end
$var wire 1 \ select_i $end
$var wire 32 i" data_o [31:0] $end
$upscope $end
$scope module PC $end
$var wire 1 < PCWrite_i $end
$var wire 1 ! clk_i $end
$var wire 32 j" pc_i [31:0] $end
$var wire 1 " rst_i $end
$var wire 1 # start_i $end
$var reg 32 k" pc_o [31:0] $end
$upscope $end
$scope module Registers $end
$var wire 5 l" RDaddr_i [4:0] $end
$var wire 32 m" RDdata_i [31:0] $end
$var wire 5 n" RS1addr_i [4:0] $end
$var wire 5 o" RS2addr_i [4:0] $end
$var wire 1 H RegWrite_i $end
$var wire 1 ! clk_i $end
$var wire 32 p" RS2data_o [31:0] $end
$var wire 32 q" RS1data_o [31:0] $end
$upscope $end
$scope module Sign_Extend $end
$var wire 12 r" data_i [11:0] $end
$var wire 32 s" data_o [31:0] $end
$upscope $end
$scope module branch_predictor $end
$var wire 1 ! clk_i $end
$var wire 1 ( result_i $end
$var wire 1 " rst_i $end
$var wire 1 # start_i $end
$var wire 1 M update_i $end
$var wire 1 1 predict_o $end
$var reg 2 t" state [1:0] $end
$upscope $end
$upscope $end
$upscope $end
$enddefinitions $end
#0
$dumpvars
b0 t"
bx s"
bx r"
bx q"
bx p"
bx o"
bx n"
b0 m"
b0 l"
bx k"
bx j"
bx i"
bx h"
bx g"
bx f"
b0 e"
bx d"
b0 c"
bx b"
bx a"
b0 `"
bx _"
b0 ^"
bx ]"
b0 \"
b0 ["
b0 Z"
bx Y"
bx X"
bx W"
bx V"
0U"
bx T"
bx S"
b0 R"
b0 Q"
b0 P"
b0 O"
b0 N"
bx M"
bx L"
bx K"
bx J"
bx I"
bx H"
bx G"
xF"
b0 E"
bx D"
b0 C"
bx B"
b0 A"
b100 @"
bx ?"
b0 >"
bx ="
bx <"
bx ;"
bx :"
bx 9"
bx 8"
bx 7"
bx 6"
bx 5"
bx 4"
bx 3"
b0 2"
b0 1"
bx 0"
bx /"
b0 ."
b0 -"
b0 ,"
b0 +"
b0 *"
b0 )"
b0 ("
bx '"
bx &"
bx %"
b0 $"
bx #"
bx ""
bx !"
b0 ~
b0 }
bx |
bx {
bx z
b100 y
bx x
bx w
bx0 v
b10 u
bx t
b0 s
b10 r
bx q
b10 p
bx o
bx n
bx m
b0 l
0k
b10 j
bx i
0h
bx g
bx f
bx e
0d
0c
0b
0a
b0 `
b0 _
b0 ^
bx ]
x\
bx [
xZ
xY
xX
xW
b0 V
bx U
b100 T
1S
b0 R
b0 Q
bx P
b0 O
bx N
xM
bx L
bx K
b0 J
0I
0H
b0 G
b0 F
bx E
bx D
bx C
bx B
bx A
0@
0?
0>
x=
x<
0;
bx :
bx 9
bx 8
bx 7
bx 6
bx 5
bx 4
bx 3
bx 2
11
bx 0
b0 /
b0 .
bx -
bx ,
bx +
bx *
x)
x(
x'
b11 &
b100000 %
b0 $
1#
0"
1!
$end
#12
0F"
b100 B
b100 Y"
b100 j"
0'
0=
0)
1<
b10100000000000100010011 6
b10100000000000100010011 G"
b10100000000000100010011 K"
b100 C
b100 V"
b100 W"
bx T
bx @"
0M
bx V
bx s
bx >"
bx R
bx $"
bx 1"
bx A"
bx O
bx +"
bx E"
bx Q
bx ,"
bx C"
0\
b0 ]
b0 t
b0 <"
0Y
0Z
0X
0W
b100 4
b100 z
b100 S"
b0 2
b0 {
b0 H"
b0 L"
b0 k"
1"
#24
0"
#25
0!
#50
b1010 g
b1010 w
b1010 3"
b1010 T"
b1010 v
b101 7
b101 ;"
b101 s"
b101 8
b101 r"
b1000 B
b1000 Y"
b1000 j"
b0 *
b0 9"
b0 p"
b0 ,
b0 :"
b0 q"
1;
1k
b11 l
b11 }
b11 2"
bx /
bx \"
bx `"
bx e"
bx m"
b100000000000010010011 6
b100000000000010010011 G"
b100000000000010010011 K"
b1000 C
b1000 V"
b1000 W"
b101 +
b101 0"
b101 8"
b101 o"
b0 -
b0 /"
b0 7"
b0 n"
b10 0
b10 6"
b0 9
b0 4"
b0 :
b10011 5
b10011 |
bx J
bx P"
bx Z"
bx `
bx ("
bx )"
bx N"
b1000 4
b1000 z
b1000 S"
b100 2
b100 {
b100 H"
b100 L"
b100 k"
b10100000000000100010011 K
b10100000000000100010011 J"
b100 5"
b0 L
b0 x
b0 I"
b1 $
1!
#75
0!
#100
b10 v
b101 i
b101 m
b101 #"
b101 q
b1 7
b1 ;"
b1 s"
b1 8
b1 r"
b0 D
b0 %"
b0 f"
b0 g"
b0 E
b0 o
b0 a"
b1100 B
b1100 Y"
b1100 j"
b0xxx0 3
b0xxx0 X"
b101 A
b101 n
b101 i"
b1 +
b1 0"
b1 8"
b1 o"
b1 0
b1 6"
b10000000001000010001100011 6
b10000000001000010001100011 G"
b10000000001000010001100011 K"
b1100 C
b1100 V"
b1100 W"
bx G
bx *"
bx Q"
bx l"
b1010 [
b1010 ="
b100 T
b100 @"
b0 V
b0 s
b0 >"
b10 R
b10 $"
b10 1"
b10 A"
b101 O
b101 +"
b101 E"
b0 Q
b0 ,"
b0 C"
b101 U
b101 ?"
b101 h"
b0 N
b0 D"
b0 d"
b0 P
b0 B"
b0 _"
1\
b11 ]
b11 t
b11 <"
1W
b100000000000010010011 K
b100000000000010010011 J"
b110 g
b110 w
b110 3"
b110 T"
b1000 5"
b100 L
b100 x
b100 I"
b1100 4
b1100 z
b1100 S"
b1000 2
b1000 {
b1000 H"
b1000 L"
b1000 k"
b10 $
1!
#125
0!
#150
1F"
b101000 v
1U"
b10100 7
b10100 ;"
b10100 s"
b10100 8
b10100 r"
b110000 B
b110000 Y"
b110000 j"
1h
0;
0k
b1 l
b1 }
b1 2"
b1 i
b1 m
b1 #"
b1 q
b100001000000010010011 6
b100001000000010010011 G"
b100001000000010010011 K"
b110000 C
b110000 V"
b110000 W"
b0 +
b0 0"
b0 8"
b0 o"
b1 -
b1 /"
b1 7"
b1 n"
b1000 0
b1000 6"
b1000 4"
b1 9
b1100011 5
b1100011 |
b1 A
b1 n
b1 i"
b10 `
b10 ("
b10 )"
b10 N"
b0 e
b0 !"
b0 '"
b101 f
b101 ""
b101 &"
b101 M"
b101 ]"
b101 b"
1a
b10000 4
b10000 z
b10000 S"
b1100 2
b1100 {
b1100 H"
b1100 L"
b1100 k"
b10000000001000010001100011 K
b10000000001000010001100011 J"
b110000 g
b110000 w
b110000 3"
b110000 T"
b1100 5"
b1000 L
b1000 x
b1000 I"
b110 [
b110 ="
b1000 T
b1000 @"
b1 R
b1 $"
b1 1"
b1 A"
b1 O
b1 +"
b1 E"
b1 U
b1 ?"
b1 h"
b11 $
1!
#175
0!
#200
1F"
b0 v
b1 E
b1 o
b1 a"
0U"
b0 7
b0 ;"
b0 s"
b0 8
b0 r"
0(
b1 i
b1 m
b1 #"
b1 q
0h
b0 l
b0 }
b0 2"
b1100 B
b1100 Y"
b1100 j"
b101 /
b101 \"
b101 `"
b101 e"
b101 m"
b1100 3
b1100 X"
1'
b10 _
b10 -"
b10 ^"
b0 A
b0 n
b0 i"
b101 j
b101 p
b101 r
b101 u
b0 -
b0 /"
b0 7"
b0 n"
b0 0
b0 6"
b0 4"
b0 9
b0 5
b0 |
b110100 C
b110100 V"
b110100 W"
b0 6
b0 G"
b0 K"
b1 `
b1 ("
b1 )"
b1 N"
b1 f
b1 ""
b1 &"
b1 M"
b1 ]"
b1 b"
b10 G
b10 *"
b10 Q"
b10 l"
b101 J
b101 P"
b101 Z"
1H
b110000 [
b110000 ="
b1100 T
b1100 @"
1M
b1000 V
b1000 s
b1000 >"
b1000 R
b1000 $"
b1000 1"
b1000 A"
b0 O
b0 +"
b0 E"
b1 Q
b1 ,"
b1 C"
b10100 U
b10100 ?"
b10100 h"
0\
b1 ]
b1 t
b1 <"
0W
b0 K
b0 J"
b0 g
b0 w
b0 3"
b0 T"
b100 5"
b0 L
b0 x
b0 I"
b110100 4
b110100 z
b110100 S"
b110000 2
b110000 {
b110000 H"
b110000 L"
b110000 k"
b100 $
1!
#225
0!
#250
b0 i
b0 m
b0 #"
b0 q
b0 E
b0 o
b0 a"
0F"
b10000 B
b10000 Y"
b10000 j"
b1 /
b1 \"
b1 `"
b1 e"
b1 m"
b100001000000010010011 6
b100001000000010010011 G"
b100001000000010010011 K"
b10000 C
b10000 V"
b10000 W"
b0 3
b0 X"
0'
b0 _
b0 -"
b0 ^"
b10 j
b10 p
b10 r
b10 u
b1 G
b1 *"
b1 Q"
b1 l"
b1 J
b1 P"
b1 Z"
b1000 `
b1000 ("
b1000 )"
b1000 N"
0a
b10000 4
b10000 z
b10000 S"
b1100 2
b1100 {
b1100 H"
b1100 L"
b1100 k"
b0 g
b0 w
b0 3"
b0 T"
b100 5"
b0 L
b0 x
b0 I"
0S
b0 [
b0 ="
b0 T
b0 @"
0M
b0 V
b0 s
b0 >"
b0 R
b0 $"
b0 1"
b0 A"
b0 Q
b0 ,"
b0 C"
b0 U
b0 ?"
b0 h"
b0 ]
b0 t
b0 <"
b1 t"
b101 $
1!
#275
0!
#300
b10 v
b1 7
b1 ;"
b1 s"
b1 8
b1 r"
b100 3
b100 X"
b1 *
b1 9"
b1 p"
b1 ,
b1 :"
b1 q"
1;
1k
b11 l
b11 }
b11 2"
b10100 B
b10100 Y"
b10100 j"
b1 +
b1 0"
b1 8"
b1 o"
b1 -
b1 /"
b1 7"
b1 n"
b1 0
b1 6"
b10011 5
b10011 |
b1000001000100001100011 6
b1000001000100001100011 G"
b1000001000100001100011 K"
b10100 C
b10100 V"
b10100 W"
b0 `
b0 ("
b0 )"
b0 N"
b0 f
b0 ""
b0 &"
b0 M"
b0 ]"
b0 b"
b1000 G
b1000 *"
b1000 Q"
b1000 l"
0H
1S
b100 T
b100 @"
b100001000000010010011 K
b100001000000010010011 J"
b1110 g
b1110 w
b1110 3"
b1110 T"
b10000 5"
b1100 L
b1100 x
b1100 I"
b10100 4
b10100 z
b10100 S"
b10000 2
b10000 {
b10000 H"
b10000 L"
b10000 k"
b110 $
1!
#325
0!
#350
1F"
b10000 v
1U"
b1000 7
b1000 ;"
b1000 s"
b1000 8
b1000 r"
b100000 B
b100000 Y"
b100000 j"
b101 *
b101 9"
b101 p"
1h
0;
0k
b1 l
b1 }
b1 2"
b1 D
b1 %"
b1 f"
b1 g"
b1 E
b1 o
b1 a"
b10 i
b10 m
b10 #"
b10 q
b0 /
b0 \"
b0 `"
b0 e"
b0 m"
b11111110000000000000110011100011 6
b11111110000000000000110011100011 G"
b11111110000000000000110011100011 K"
b100000 C
b100000 V"
b100000 W"
b10 +
b10 0"
b10 8"
b10 o"
b10000 0
b10000 6"
b1100011 5
b1100011 |
b10000 3
b10000 X"
b1 A
b1 n
b1 i"
b0 G
b0 *"
b0 Q"
b0 l"
b0 J
b0 P"
b0 Z"
b11000 4
b11000 z
b11000 S"
b10100 2
b10100 {
b10100 H"
b10100 L"
b10100 k"
b1000001000100001100011 K
b1000001000100001100011 J"
b100000 g
b100000 w
b100000 3"
b100000 T"
b10100 5"
b10000 L
b10000 x
b10000 I"
b1110 [
b1110 ="
b10000 T
b10000 @"
b1 R
b1 $"
b1 1"
b1 A"
b1 O
b1 +"
b1 E"
b1 Q
b1 ,"
b1 C"
b1 U
b1 ?"
b1 h"
b1 N
b1 D"
b1 d"
b1 P
b1 B"
b1 _"
1\
b11 ]
b11 t
b11 <"
1W
b111 $
1!
#375
0!
#400
1F"
b0 v
b10 E
b10 o
b10 a"
b101 A
b101 n
b101 i"
0U"
b0 7
b0 ;"
b0 s"
b0 8
b0 r"
b101 D
b101 %"
b101 f"
b101 g"
0(
b11111111111111111111111111111101 i
b11111111111111111111111111111101 m
b11111111111111111111111111111101 #"
b11111111111111111111111111111101 q
0h
b0 l
b0 }
b0 2"
b0 *
b0 9"
b0 p"
b0 ,
b0 :"
b0 q"
b10100 B
b10100 Y"
b10100 j"
b10100 3
b10100 X"
1'
b10 _
b10 -"
b10 ^"
b101 j
b101 p
b101 r
b101 u
b0 5
b0 |
b0 +
b0 0"
b0 8"
b0 o"
b0 -
b0 /"
b0 7"
b0 n"
b0 0
b0 6"
b100100 C
b100100 V"
b100100 W"
b11111110000000001000111011100011 6
b11111110000000001000111011100011 G"
b11111110000000001000111011100011 K"
b1 `
b1 ("
b1 )"
b1 N"
b1 e
b1 !"
b1 '"
b10 f
b10 ""
b10 &"
b10 M"
b10 ]"
b10 b"
1a
b100000 [
b100000 ="
b10100 T
b10100 @"
1M
b10000 R
b10000 $"
b10000 1"
b10000 A"
b10 O
b10 +"
b10 E"
b1000 U
b1000 ?"
b1000 h"
b101 N
b101 D"
b101 d"
0\
b1 ]
b1 t
b1 <"
0W
b0 K
b0 J"
b0 g
b0 w
b0 3"
b0 T"
b100 5"
b0 L
b0 x
b0 I"
b100100 4
b100100 z
b100100 S"
b100000 2
b100000 {
b100000 H"
b100000 L"
b100000 k"
b1000 $
1!
#425
0!
#450
b0 A
b0 n
b0 i"
b0 E
b0 o
b0 a"
0F"
b11000 B
b11000 Y"
b11000 j"
b0 D
b0 %"
b0 f"
b0 g"
b0 i
b0 m
b0 #"
b0 q
b10 /
b10 \"
b10 `"
b10 e"
b10 m"
b11111110000000000000110011100011 6
b11111110000000000000110011100011 G"
b11111110000000000000110011100011 K"
b11000 C
b11000 V"
b11000 W"
b0 3
b0 X"
0'
b0 _
b0 -"
b0 ^"
b10 j
b10 p
b10 r
b10 u
01
b1 G
b1 *"
b1 Q"
b1 l"
b10 J
b10 P"
b10 Z"
1H
b10000 `
b10000 ("
b10000 )"
b10000 N"
b101 e
b101 !"
b101 '"
b11111111111111111111111111111101 f
b11111111111111111111111111111101 ""
b11111111111111111111111111111101 &"
b11111111111111111111111111111101 M"
b11111111111111111111111111111101 ]"
b11111111111111111111111111111101 b"
0a
b11000 4
b11000 z
b11000 S"
b10100 2
b10100 {
b10100 H"
b10100 L"
b10100 k"
b0 K
b0 J"
b0 g
b0 w
b0 3"
b0 T"
b100 5"
b0 L
b0 x
b0 I"
0S
b0 [
b0 ="
b0 T
b0 @"
0M
b0 R
b0 $"
b0 1"
b0 A"
b0 O
b0 +"
b0 E"
b0 Q
b0 ,"
b0 C"
b0 U
b0 ?"
b0 h"
b0 N
b0 D"
b0 d"
b0 P
b0 B"
b0 _"
b0 ]
b0 t
b0 <"
b10 t"
b1001 $
1!
#475
0!
#500
b11111111111111111111111111111000 v
b11111111111111111111111111111100 7
b11111111111111111111111111111100 ;"
b11111111111111111111111111111100 s"
b111111111100 8
b111111111100 r"
1h
b1 l
b1 }
b1 2"
b11100 B
b11100 Y"
b11100 j"
b11111111111111111111111111111101 /
b11111111111111111111111111111101 \"
b11111111111111111111111111111101 `"
b11111111111111111111111111111101 e"
b11111111111111111111111111111101 m"
b11001 0
b11001 6"
b1111111000 4"
b1111111 9
b1100011 5
b1100011 |
b10011 6
b10011 G"
b10011 K"
b11100 C
b11100 V"
b11100 W"
b0 `
b0 ("
b0 )"
b0 N"
b0 e
b0 !"
b0 '"
b0 f
b0 ""
b0 &"
b0 M"
b0 ]"
b0 b"
b10000 G
b10000 *"
b10000 Q"
b10000 l"
b11111111111111111111111111111101 J
b11111111111111111111111111111101 P"
b11111111111111111111111111111101 Z"
0H
b100 T
b100 @"
b11111110000000000000110011100011 K
b11111110000000000000110011100011 J"
b1100 g
b1100 w
b1100 3"
b1100 T"
b11000 5"
b10100 L
b10100 x
b10100 I"
b11100 4
b11100 z
b11100 S"
b11000 2
b11000 {
b11000 H"
b11000 L"
b11000 k"
b1010 $
1!
#525
0!
#550
1F"
b0 v
1'
b0 7
b0 ;"
b0 s"
b0 8
b0 r"
b1100 B
b1100 Y"
b1100 j"
0h
1;
1k
b11 l
b11 }
b11 2"
1(
b0 /
b0 \"
b0 `"
b0 e"
b0 m"
b100000 C
b100000 V"
b100000 W"
b0 0
b0 6"
b0 4"
b0 9
b10011 5
b10011 |
b1100 3
b1100 X"
b101 j
b101 p
b101 r
b101 u
b0 G
b0 *"
b0 Q"
b0 l"
b0 J
b0 P"
b0 Z"
b100000 4
b100000 z
b100000 S"
b11100 2
b11100 {
b11100 H"
b11100 L"
b11100 k"
b10011 K
b10011 J"
b11000 g
b11000 w
b11000 3"
b11000 T"
b11100 5"
b11000 L
b11000 x
b11000 I"
b1100 [
b1100 ="
b11000 T
b11000 @"
1M
b1111111000 V
b1111111000 s
b1111111000 >"
b11001 R
b11001 $"
b11001 1"
b11001 A"
b11111111111111111111111111111100 U
b11111111111111111111111111111100 ?"
b11111111111111111111111111111100 h"
b1 ]
b1 t
b1 <"
b1011 $
1!
#575
0!
#600
0F"
b10000 B
b10000 Y"
b10000 j"
0;
0k
b0 l
b0 }
b0 2"
11
b0 3
b0 X"
0'
b10 j
b10 p
b10 r
b10 u
b0 5
b0 |
b100001000000010010011 6
b100001000000010010011 G"
b100001000000010010011 K"
b10000 C
b10000 V"
b10000 W"
b11001 `
b11001 ("
b11001 )"
b11001 N"
b1 t"
b0 [
b0 ="
b0 T
b0 @"
0M
b0 V
b0 s
b0 >"
b0 R
b0 $"
b0 1"
b0 A"
b0 U
b0 ?"
b0 h"
b0 ]
b0 t
b0 <"
b0 K
b0 J"
b0 g
b0 w
b0 3"
b0 T"
b100 5"
b0 L
b0 x
b0 I"
b10000 4
b10000 z
b10000 S"
b1100 2
b1100 {
b1100 H"
b1100 L"
b1100 k"
b1100 $
1!
#625
0!
#650
b10 v
b1 7
b1 ;"
b1 s"
b1 8
b1 r"
b10100 B
b10100 Y"
b10100 j"
b10 *
b10 9"
b10 p"
b10 ,
b10 :"
b10 q"
1;
1k
b11 l
b11 }
b11 2"
b1000001000100001100011 6
b1000001000100001100011 G"
b1000001000100001100011 K"
b10100 C
b10100 V"
b10100 W"
b1 +
b1 0"
b1 8"
b1 o"
b1 -
b1 /"
b1 7"
b1 n"
b1 0
b1 6"
b10011 5
b10011 |
b11001 G
b11001 *"
b11001 Q"
b11001 l"
b0 `
b0 ("
b0 )"
b0 N"
b10100 4
b10100 z
b10100 S"
b10000 2
b10000 {
b10000 H"
b10000 L"
b10000 k"
b100001000000010010011 K
b100001000000010010011 J"
b1110 g
b1110 w
b1110 3"
b1110 T"
b10000 5"
b1100 L
b1100 x
b1100 I"
1S
b100 T
b100 @"
b1101 $
1!
#675
0!
